0 -- No Serviço Cristão . 8
1 -- Mãos à obra 10
2 -- Pensa um pouco .. 11
3 -- O arado  12
4 -- Antes de servir .. 13
5 -- Salários  14
6 -- Valei-vos da luz  15
7 -- A semente .. 17
8 -- Ansiedades . 18
9 -- Homens de fé  20
10 -- Sentimentos fraternos .. 21
11 -- O bem é incansável .. 22
12 -- Pensaste nisso? . 23
13 -- Estações necessárias .. 25
14 -- Páginas .. 26
15 -- Pensamentos  27
16 -- A quem obedeces?  29
17 -- Intercessão  30
18 -- Provas de fogo  31
19 -- Falsas alegações  32
20 -- A marcha  33
21 -- Mar alto .. 35
22 -- Inconstantes . 37
23 -- Não é de todos  39
24 -- Filhos pródigos  40
25 -- Nas estradas  41
26 -- Trabalhos imediatos.. 42
27 -- Esmagamento do mal .. 44
28 -- E os fins?  45
29 -- A vinha  46
30 -- Convenções.. 47
31 -- Com caridade .. 48
32 -- Cadáveres . 49
33 -- Trabalhemos também .. 51
34 -- Lugar deserto .. 53
35 -- O Cristo operante .. 54
36 -- Até o fim . 55
37 -- Seria inútil .. 56
38 -- Conta particular .. 58
39 -- Convite ao bem 59
40 -- Em preparação  61
41 -- No futuro. 63
42 -- Sempre vivos  65
43 -- Boas maneiras . 67
44 -- Curas  69
45 -- Quando orardes .. 70
46 -- Vós, entretanto  71
47 -- O problema de agradar  72
48 -- Compreendamos  73
49 -- Velho argumento  75
50 -- Preserva a ti próprio . 77
51 -- Socorre a ti mesmo  78
52 -- Perigos sutis . 79
53 -- Em cadeias  81
54 -- Razão dos apelos .. 83
55 -- Coisas invisíveis . 85
56 -- Êxitos e insucessos .. 86
57 -- Perante Jesus .. 87
58 -- Contribuir  89
59 -- Sigamos até lá . 90
60 -- Lógica da Providência .. 91
61 -- O homem com Jesus  93
62 -- Jesus para o homem  94
63 -- O Senhor dá sempre. 96
64 -- Melhor sofrer no bem  98
65 -- Tenhamos paz . 99
66 -- Boa-vontade .. 101
67 -- Má-vontade. 102
68 -- Necessário acordar . 103
69 -- Hoje  104
70 -- Elogios . 106
71 -- Sacudir o pó .. 107
72 -- Contempla mais longe .. 108
73 -- Aprendamos quanto antes .. 110
74 -- Más palestras  111
75 -- Murmurações . 112
76 -- As testemunhas  113
77 -- Responder .. 114
78 -- Segundo a carne . 115
79 -- O ``mas'' e os discípulos  117
80 -- O ``não'' e a luta . 119
81 -- No paraíso .. 120
82 -- Em Espírito . 121
83 -- Conforme o amor . 123
84 -- Levantando mãos santas . 125
85 -- E o adúltero? . 126
86 -- Intentar e agir  128
87 -- Pondera sempre .. 129
88 -- Correções  131
89 -- Bem-aventuranças .. 133
90 -- O trabalhador divino 134
91 -- Isso é contigo  135
92 -- Deus não desampara . 136
93 -- O Evangelho e a mulher .. 138
94 -- Sexo .. 139
95 -- Esta é a mensagem  141
96 -- Justamente por isso  142
97 -- Conserva o modelo . 143
98 -- Evita contender . 145
99 -- Com ardente amor .. 147
100 -- Rendamos graças . 148
101 -- Resiste à tentação  150
102 -- Nós e César . 152
103 -- Cruz e disciplina  154
104 -- Direito sagrado .. 156
105 -- Observação primordial  158
106 -- Há muita diferença  159
107 -- Piedade . 161
108 -- Oração 163
109 -- Três imperativos  165
110 -- Magnetismo pessoal  167
111 -- Granjeai amigos . 168
112 -- Tabernáculos eternos . 169
113 -- Tua fé . 171
114 -- Novos atenienses . 172
115 -- A porta  173
116 -- Ouçam-nos .. 174
117 -- Em família. 175
118 -- É para isto  177
119 -- Ajuda sempre . 178
120 -- Conciliação .. 179
121 -- Monturo . 180
122 -- Pecado e pecador . 181
123 -- Condição comum .. 182
124 -- Não falta  183
125 -- Separação  185
126 -- O espinho . 186
127 -- Lei de retorno . 188
128 -- É porque ignoram . 189
129 -- Ao partir do pão . 190
130 -- Onde estão?  191
131 -- O mundo e a crença  192
132 -- Em tudo . 193
133 -- O grande futuro.. 194
134 -- Nutrição espiritual . 195
135 -- Renovação necessária  196
136 -- Conflito .. 197
137 -- Inimigos . 198
138 -- Vejamos isso .. 199
139 -- Oferendas . 200
140 -- Saibamos lembrar . 201
141 -- Amor fraternal . 202
142 -- Revides . 203
143 -- Não tiranizes  205
144 -- Fazei preparativos  206
145 -- Obreiros . 207
146 -- Seguir a verdade .. 208
147 -- Não é só  209
148 -- Ceifeiros  210
149 -- Crer em vão . 211
150 -- É o mesmo .. 212
151 -- Ninguém se retira . 213
152 -- De que modo?  215
153 -- Não tropecemos  216
154 -- Os contrários .. 218
155 -- Contra a insensatez . 219
156 -- Céu com céu .. 220
157 -- O filho egoísta  222
158 -- Governo interno . 223
159 -- A posse do Reino . 225
160 -- A grande luta .. 227
161 -- Vós, que dizeis?  229
162 -- Manifestações espirituais .. 230
163 -- Agradecer . 232
164 -- O diabo .. 233
165 -- Falsos discursos  235
166 -- Cura do ódio  236
167 -- Entendimento . 238
168 -- De madrugada  240
169 -- Olhos .. 241
170 -- A língua . 242
171 -- Lei do uso . 243
172 -- Que despertas? . 244
173 -- Como testemunhar .. 245
174 -- Espiritismo na fé  246
175 -- Tratamento de obsessões . 248
176 -- Na revelação da vida .. 250
177 -- Guardemos saúde mental . 252
178 -- Combate interior  253
179 -- Entendamos servindo . 255
180 -- Crê e segue . 257
